ALEJO GISELA 38652291
Andulce Pamela 29893221
Arguello Carolina 37004575
Arias Maximiliano 37776176
Aziz Paissanidis Angela Valeria 34721421
Balderrama Facundo Ruben 39007120
blanco Isabel 39887531
Brochero Marcos Rodrigo 42815123
Burgos Lorena 28514661
Cabrera Maria Belen 36803702
Cardozo José Raúl 28261819
Carrizo Valeria Emilse 29737072
Casimiro Arnaldo Guido 29738612
Chaile Ernesto 26030885
Chauque Jonathan Emmanuel 38344288
yañez cornejo Santiago 33090917
Costello Victoria 43137018
Costilla González Ramiro Nicolás 36130222
Cruz Beatriz 27972077
Cruz Adolfo Maximiliano 36280488
diaz Gabriela 29335806
Diaz Rita Cecilia 32298318
Dominguez Maximiliano Rodrigo Eliseo 39780409
dominguez Margarita 33293395
Esper Nahir Azucena 37601893
Esper Caterina 36,379,701
Estrada Yamila 41020267
Fabián Nicolás Exequiel 43168453
Farfan Roque Ismael 31853834
Farfán Cristina Antonieta 32910687
Farfán Pardo Natalia 31436833
Flores Gianina 38738760
Flores Pérez Roberto Miguel 38211191
Franch Maximiliano 36912281
Garcia Michael 41180262
Gareca Cointte Andrea Verónica 37636580
Geron Soledad 38652236
Gonzalez luis alberto 28612078
Gonzalez Enzo Francisco 41370476
González Diego Sebastián 35281451
Goycochea SILVANA 24535338
Guaimás Ana Belén Mercedes 40467736
Guanca Iván Moisés 39888363
Guantay Silvana Raquel 27552187
Hoyos ivan 36976610
Ledesma Gustavo Damian 34454346
Llanes Melina Cecilia 33173234
loayza Maribel claudia 38212960
lofvall ariel 24228899
Lopez Mauricio Agustin 43337336
Mamani Elisa 39399883
Mamani Micaela 39780593
Martinez Gabriel 30531288
Maurín Trinidad Hanna Luz 43951098
Midú Marcelino Nicolás 29755979
Naar enrique gomez 40629426
Navarro Gonzalo F. 31548036
ojeda Valeria romina 31853586
Ordoñez Lucia Yanina 36890755
Ordóñez Daiana 44879357
Ortega Daniela 25753289
Ortiz Leonardo 27403491
Peñaranda Carla 36677031
Perales cintia 30607223
Peralta Pablo 24697159
Perez Tejada Luciano Javier 35261379
Portal Ana 41528125
quipildor Maira 35480557
Ramos Alejandro Jorge 37777289
Reina Noelia Alejandra 34913536
Reina Pablo 39537602
Reina Jerónimo 33428711
Reyes Alejandra 23430596
Rivera Casso Alejandra 96038148
Rodriguez Diego Alejandro 32165139
Rodríguez Maria Lucrecia 39781213
Rodríguez Lara Eliana Marisol Paula 37088205
Rosas Natalia 35482125
Rueda Mariela 30806980
salazar santiago 43686795
Salcedo elvia 94045695
Sandoval Carla fabiana 36444357
sarapura Enzo gonzalo 30608079
Sarapura Mauricio Ezequiel 42814975
Soto Marina Rosaura 35264319
Tirado Lucas Nahir 39003121
Torres Marina Belen 37419358
Torres Pablo 42916876
urrutia Joana Noelia 36912394
Urzagasti Georgina Milagro 36346125
Vasquez Lucas Braian 42606487
Velez Kevin Alexis 44444806
Veliz Luciano 39219541
villagra Nora 28439767
Villalba Magali 34295733
Vivero Ulises Gabriel 44566600
Volonté Bruno Alejandro 33255372
Yapura María Del Milagro 44175569
Yurquina Joaquin Yurquina 43336181
Zajama Luciana Romina 39040592
Zambrano Sara 40354715